…
    library(googleAnalyticsR)  # assume auto-authentication
    library(googleAnalyticsModelR)

    # install any needed libraries
    #remotes::install_github("twitter/AnomalyDetection")

    my_viewid <- 81416156
    ga_model(my_viewid, 
             model = "inst/models/anomaly_model.gamr",
             date_range = c(Sys.Date()-601, Sys.Date()-1),
             value_col = "users",
             max_anoms = 0.5)

    ## # A tibble: 601 x 7
    ##    date                users is_positive_ano… positive_anomal…
    ##    <dttm>              <dbl> <lgl>                       <dbl>
    ##  1 2017-06-20 00:00:00   206 FALSE                          NA
    ##  2 2017-06-21 00:00:00   193 FALSE                          NA
    ##  3 2017-06-22 00:00:00   184 FALSE                          NA
    ##  4 2017-06-23 00:00:00   184 FALSE                          NA
    ##  5 2017-06-24 00:00:00    88 FALSE                          NA
    ##  6 2017-06-25 00:00:00    91 FALSE                          NA
    ##  7 2017-06-26 00:00:00   177 FALSE                          NA
    ##  8 2017-06-27 00:00:00   178 FALSE                          NA
    ##  9 2017-06-28 00:00:00   193 FALSE                          NA
    ## 10 2017-06-29 00:00:00   183 FALSE                          NA
    ## # … with 591 more rows, and 3 more variables: is_negative_anomaly <lgl>,
    ## #   negative_anomalies <dbl>, expected_value <dbl>

    #repeat with another viewId
    ga_model(123875646, 
             model = "inst/models/anomaly_model.gamr",
             date_range = c(Sys.Date()-601, Sys.Date()-1),
             value_col = "users",
             max_anoms = 0.5)

    ## # A tibble: 601 x 7
    ##    date                users is_positive_ano… positive_anomal…
    ##    <dttm>              <dbl> <lgl>                       <dbl>
    ##  1 2017-06-20 00:00:00    15 FALSE                          NA
    ##  2 2017-06-21 00:00:00     9 FALSE                          NA
    ##  3 2017-06-22 00:00:00    15 FALSE                          NA
    ##  4 2017-06-23 00:00:00    15 FALSE                          NA
    ##  5 2017-06-24 00:00:00     5 FALSE                          NA
    ##  6 2017-06-25 00:00:00     4 FALSE                          NA
    ##  7 2017-06-26 00:00:00    18 FALSE                          NA
    ##  8 2017-06-27 00:00:00    16 FALSE                          NA
    ##  9 2017-06-28 00:00:00     7 FALSE                          NA
    ## 10 2017-06-29 00:00:00     8 FALSE                          NA
    ## # … with 591 more rows, and 3 more variables: is_negative_anomaly <lgl>,
    ## #   negative_anomalies <dbl>, expected_value <dbl>
…
